{
	
	"Cassandra" : {
		"clusterName" : "Test Cluster",
		"host" : "localhost",
		"portX" : 28500, 
		"port" : 29160,
		"rpcPort" : 29042,
		"reloadColumnFamilies" : true
	},
	
	"SearchEngineProvider" : {
		"class" 		: "net.hypki.libs5.search.elastic.ElasticSearchProvider"
	},
	
	"ElasticSearch" : {
		"host" : "localhost",
		"portDefault" : 9300,
		"port" : 28601
	},
	
	"StorageProvider" : {
		"class"			: "net.hypki.libs5.storage.hadoop.HdfsStorageProvider",
		"hadoopPath" 	: "$HOME/hadoop-0.20.2/"
	},
	
	"CacheProvider" : {
		"class" 		: "net.hypki.libs5.cache.ehcache.EhcacheProvider"
	},
	
	"Mail" : {
		"host" : "localhost",
		"port" : 28001,
		"from" : "test@test.pl",
		"pass" : "test",
		"SSL"  : true
	},
	
	"Jobs" : {
		"Workers" : 1
	},
	
	"Settings" : {
		"Keyspace" 				: "Weblibs",
		"OpenIDReturnURL" 		: "http://domain.com/openid",
		"RegistrationEnabled"	: false,
		"Domain"				: "localhost"
	}
}